{
  "items": [
    {
      "external_urls": {
        "spotify": "https://open.spotify.com/artist/4LLpKhyESsyAXpc4laK94U"
      },
      "followers": {
        "href": null,
        "total": 6622358
      },
      "genres": [
        "hip hop",
        "pittsburgh rap",
        "rap"
      ],
      "href": "https://api.spotify.com/v1/artists/4LLpKhyESsyAXpc4laK94U",
      "id": "4LLpKhyESsyAXpc4laK94U",
      "images": [
        {
          "height": 640,
          "url": "https://i.scdn.co/image/ab6761610000e5ebed3b89aa602145fde71a163a",
          "width": 640
        },
        {
          "height": 320,
          "url": "https://i.scdn.co/image/ab67616100005174ed3b89aa602145fde71a163a",
          "width": 320
        },
        {
          "height": 160,
          "url": "https://i.scdn.co/image/ab6761610000f178ed3b89aa602145fde71a163a",
          "width": 160
        }
      ],
      "name": "Mac Miller",
      "popularity": 86,
      "type": "artist",
      "uri": "spotify:artist:4LLpKhyESsyAXpc4laK94U"
    },
    {
      "external_urls": {
        "spotify": "https://open.spotify.com/artist/3grHWM9bx2E9vwJCdlRv9O"
      },
      "followers": {
        "href": null,
        "total": 3672887
      },
      "genres": [
        "contemporary country",
        "country",
        "country road"
      ],
      "href": "https://api.spotify.com/v1/artists/3grHWM9bx2E9vwJCdlRv9O",
      "id": "3grHWM9bx2E9vwJCdlRv9O",
      "images": [
        {
          "height": 640,
          "url": "https://i.scdn.co/image/ab6761610000e5ebe5289a2a13c374dd34a97247",
          "width": 640
        },
        {
          "height": 320,
          "url": "https://i.scdn.co/image/ab67616100005174e5289a2a13c374dd34a97247",
          "width": 320
        },
        {
          "height": 160,
          "url": "https://i.scdn.co/image/ab6761610000f178e5289a2a13c374dd34a97247",
          "width": 160
        }
      ],
      "name": "Kenny Chesney",
      "popularity": 73,
      "type": "artist",
      "uri": "spotify:artist:3grHWM9bx2E9vwJCdlRv9O"
    },
    {
      "external_urls": {
        "spotify": "https://open.spotify.com/artist/3vDpQbGnzRbRVirXlfQagB"
      },
      "followers": {
        "href": null,
        "total": 566838
      },
      "genres": [
        "alternative americana",
        "kentucky roots",
        "nashville singer-songwriter",
        "new americana",
        "outlaw country"
      ],
      "href": "https://api.spotify.com/v1/artists/3vDpQbGnzRbRVirXlfQagB",
      "id": "3vDpQbGnzRbRVirXlfQagB",
      "images": [
        {
          "height": 640,
          "url": "https://i.scdn.co/image/ab6761610000e5eb69fbcd5fd0c1a7d149a5a1a1",
          "width": 640
        },
        {
          "height": 320,
          "url": "https://i.scdn.co/image/ab6761610000517469fbcd5fd0c1a7d149a5a1a1",
          "width": 320
        },
        {
          "height": 160,
          "url": "https://i.scdn.co/image/ab6761610000f17869fbcd5fd0c1a7d149a5a1a1",
          "width": 160
        }
      ],
      "name": "Sturgill Simpson",
      "popularity": 66,
      "type": "artist",
      "uri": "spotify:artist:3vDpQbGnzRbRVirXlfQagB"
    },
    {
      "external_urls": {
        "spotify": "https://open.spotify.com/artist/2TI7qyDE0QfyOlnbtfDo7L"
      },
      "followers": {
        "href": null,
        "total": 1626016
      },
      "genres": [
        "jam band",
        "neo mellow",
        "pop rock"
      ],
      "href": "https://api.spotify.com/v1/artists/2TI7qyDE0QfyOlnbtfDo7L",
      "id": "2TI7qyDE0QfyOlnbtfDo7L",
      "images": [
        {
          "height": 640,
          "url": "https://i.scdn.co/image/ab6761610000e5ebc04724201a3cd1a81d7bba05",
          "width": 640
        },
        {
          "height": 320,
          "url": "https://i.scdn.co/image/ab67616100005174c04724201a3cd1a81d7bba05",
          "width": 320
        },
        {
          "height": 160,
          "url": "https://i.scdn.co/image/ab6761610000f178c04724201a3cd1a81d7bba05",
          "width": 160
        }
      ],
      "name": "Dave Matthews Band",
      "popularity": 67,
      "type": "artist",
      "uri": "spotify:artist:2TI7qyDE0QfyOlnbtfDo7L"
    },
    {
      "external_urls": {
        "spotify": "https://open.spotify.com/artist/4TMHGUX5WI7OOm53PqSDAT"
      },
      "followers": {
        "href": null,
        "total": 1365326
      },
      "genres": [
        "classic rock",
        "cosmic american",
        "country rock",
        "double drumming",
        "folk rock",
        "jam band",
        "psychedelic rock",
        "rock"
      ],
      "href": "https://api.spotify.com/v1/artists/4TMHGUX5WI7OOm53PqSDAT",
      "id": "4TMHGUX5WI7OOm53PqSDAT",
      "images": [
        {
          "height": 697,
          "url": "https://i.scdn.co/image/bba340d0c2aa4c9cbcbab0a4c3259d8f8e27f0d7",
          "width": 1000
        },
        {
          "height": 446,
          "url": "https://i.scdn.co/image/4c000d838221db17a95ec272d79c06560829ab11",
          "width": 640
        },
        {
          "height": 139,
          "url": "https://i.scdn.co/image/055f1232a2588ace9747002f972be62ecbb74e92",
          "width": 199
        },
        {
          "height": 45,
          "url": "https://i.scdn.co/image/264413e72f38c521bb90e5c5cc3d5c6b5097efdb",
          "width": 64
        }
      ],
      "name": "Grateful Dead",
      "popularity": 69,
      "type": "artist",
      "uri": "spotify:artist:4TMHGUX5WI7OOm53PqSDAT"
    },
    {
      "external_urls": {
        "spotify": "https://open.spotify.com/artist/0EeQBlQJFiAfJeVN2vT9s0"
      },
      "followers": {
        "href": null,
        "total": 2461579
      },
      "genres": [
        "conscious hip hop",
        "gangster rap",
        "hip hop",
        "pop rap",
        "rap",
        "southern hip hop",
        "trap"
      ],
      "href": "https://api.spotify.com/v1/artists/0EeQBlQJFiAfJeVN2vT9s0",
      "id": "0EeQBlQJFiAfJeVN2vT9s0",
      "images": [
        {
          "height": 640,
          "url": "https://i.scdn.co/image/ab6761610000e5ebe9edae8fe232af1d2995c991",
          "width": 640
        },
        {
          "height": 320,
          "url": "https://i.scdn.co/image/ab67616100005174e9edae8fe232af1d2995c991",
          "width": 320
        },
        {
          "height": 160,
          "url": "https://i.scdn.co/image/ab6761610000f178e9edae8fe232af1d2995c991",
          "width": 160
        }
      ],
      "name": "Nipsey Hussle",
      "popularity": 70,
      "type": "artist",
      "uri": "spotify:artist:0EeQBlQJFiAfJeVN2vT9s0"
    },
    {
      "external_urls": {
        "spotify": "https://open.spotify.com/artist/22bE4uQ6baNwSHPVcDxLCe"
      },
      "followers": {
        "href": null,
        "total": 11039338
      },
      "genres": [
        "british invasion",
        "classic rock",
        "rock"
      ],
      "href": "https://api.spotify.com/v1/artists/22bE4uQ6baNwSHPVcDxLCe",
      "id": "22bE4uQ6baNwSHPVcDxLCe",
      "images": [
        {
          "height": 640,
          "url": "https://i.scdn.co/image/ab6761610000e5ebd3cb15a8570cce5a63af63d8",
          "width": 640
        },
        {
          "height": 320,
          "url": "https://i.scdn.co/image/ab67616100005174d3cb15a8570cce5a63af63d8",
          "width": 320
        },
        {
          "height": 160,
          "url": "https://i.scdn.co/image/ab6761610000f178d3cb15a8570cce5a63af63d8",
          "width": 160
        }
      ],
      "name": "The Rolling Stones",
      "popularity": 81,
      "type": "artist",
      "uri": "spotify:artist:22bE4uQ6baNwSHPVcDxLCe"
    },
    {
      "external_urls": {
        "spotify": "https://open.spotify.com/artist/3TVXtAsR1Inumwj472S9r4"
      },
      "followers": {
        "href": null,
        "total": 58956629
      },
      "genres": [
        "canadian hip hop",
        "canadian pop",
        "hip hop",
        "rap",
        "toronto rap"
      ],
      "href": "https://api.spotify.com/v1/artists/3TVXtAsR1Inumwj472S9r4",
      "id": "3TVXtAsR1Inumwj472S9r4",
      "images": [
        {
          "height": 640,
          "url": "https://i.scdn.co/image/ab6761610000e5eb9e46a78c5cd2f7a8e7669980",
          "width": 640
        },
        {
          "height": 320,
          "url": "https://i.scdn.co/image/ab676161000051749e46a78c5cd2f7a8e7669980",
          "width": 320
        },
        {
          "height": 160,
          "url": "https://i.scdn.co/image/ab6761610000f1789e46a78c5cd2f7a8e7669980",
          "width": 160
        }
      ],
      "name": "Drake",
      "popularity": 97,
      "type": "artist",
      "uri": "spotify:artist:3TVXtAsR1Inumwj472S9r4"
    },
    {
      "external_urls": {
        "spotify": "https://open.spotify.com/artist/0t1sRNhzk7wIfWSvjD87vi"
      },
      "followers": {
        "href": null,
        "total": 17632
      },
      "genres": [
        "alternative country",
        "austin americana",
        "new americana",
        "roots americana",
        "texas country"
      ],
      "href": "https://api.spotify.com/v1/artists/0t1sRNhzk7wIfWSvjD87vi",
      "id": "0t1sRNhzk7wIfWSvjD87vi",
      "images": [
        {
          "height": 640,
          "url": "https://i.scdn.co/image/ab6761610000e5eb3be719ad7eaefff9c71713ba",
          "width": 640
        },
        {
          "height": 320,
          "url": "https://i.scdn.co/image/ab676161000051743be719ad7eaefff9c71713ba",
          "width": 320
        },
        {
          "height": 160,
          "url": "https://i.scdn.co/image/ab6761610000f1783be719ad7eaefff9c71713ba",
          "width": 160
        }
      ],
      "name": "Mike and the Moonpies",
      "popularity": 46,
      "type": "artist",
      "uri": "spotify:artist:0t1sRNhzk7wIfWSvjD87vi"
    },
    {
      "external_urls": {
        "spotify": "https://open.spotify.com/artist/5xLSa7l4IV1gsQfhAMvl0U"
      },
      "followers": {
        "href": null,
        "total": 2352600
      },
      "genres": [
        "blues",
        "blues rock",
        "classic rock",
        "electric blues",
        "jazz blues",
        "soul blues",
        "traditional blues"
      ],
      "href": "https://api.spotify.com/v1/artists/5xLSa7l4IV1gsQfhAMvl0U",
      "id": "5xLSa7l4IV1gsQfhAMvl0U",
      "images": [
        {
          "height": 1259,
          "url": "https://i.scdn.co/image/ffb3ff26238fe635a230bb0feb59dd0a5b209b6f",
          "width": 1000
        },
        {
          "height": 806,
          "url": "https://i.scdn.co/image/7e53bec2f958fa7fd1868124a0897cb0d08b60ee",
          "width": 640
        },
        {
          "height": 252,
          "url": "https://i.scdn.co/image/8b4bbc1e769cc1cf78a6a369f3a8b0026631eb96",
          "width": 200
        },
        {
          "height": 81,
          "url": "https://i.scdn.co/image/56746f2b047d78df56f077a02bf6720858d50454",
          "width": 64
        }
      ],
      "name": "B.B. King",
      "popularity": 65,
      "type": "artist",
      "uri": "spotify:artist:5xLSa7l4IV1gsQfhAMvl0U"
    },
    {
      "external_urls": {
        "spotify": "https://open.spotify.com/artist/3WrFJ7ztbogyGnTHbHJFl2"
      },
      "followers": {
        "href": null,
        "total": 21174826
      },
      "genres": [
        "beatlesque",
        "british invasion",
        "classic rock",
        "merseybeat",
        "psychedelic rock",
        "rock"
      ],
      "href": "https://api.spotify.com/v1/artists/3WrFJ7ztbogyGnTHbHJFl2",
      "id": "3WrFJ7ztbogyGnTHbHJFl2",
      "images": [
        {
          "height": 640,
          "url": "https://i.scdn.co/image/ab6761610000e5ebe9348cc01ff5d55971b22433",
          "width": 640
        },
        {
          "height": 320,
          "url": "https://i.scdn.co/image/ab67616100005174e9348cc01ff5d55971b22433",
          "width": 320
        },
        {
          "height": 160,
          "url": "https://i.scdn.co/image/ab6761610000f178e9348cc01ff5d55971b22433",
          "width": 160
        }
      ],
      "name": "The Beatles",
      "popularity": 87,
      "type": "artist",
      "uri": "spotify:artist:3WrFJ7ztbogyGnTHbHJFl2"
    },
    {
      "external_urls": {
        "spotify": "https://open.spotify.com/artist/2YZyLoL8N0Wb9xBt1NhZWg"
      },
      "followers": {
        "href": null,
        "total": 18749675
      },
      "genres": [
        "conscious hip hop",
        "hip hop",
        "rap",
        "west coast rap"
      ],
      "href": "https://api.spotify.com/v1/artists/2YZyLoL8N0Wb9xBt1NhZWg",
      "id": "2YZyLoL8N0Wb9xBt1NhZWg",
      "images": [
        {
          "height": 640,
          "url": "https://i.scdn.co/image/ab6761610000e5eb2183ea958d3777d4c485138a",
          "width": 640
        },
        {
          "height": 320,
          "url": "https://i.scdn.co/image/ab676161000051742183ea958d3777d4c485138a",
          "width": 320
        },
        {
          "height": 160,
          "url": "https://i.scdn.co/image/ab6761610000f1782183ea958d3777d4c485138a",
          "width": 160
        }
      ],
      "name": "Kendrick Lamar",
      "popularity": 88,
      "type": "artist",
      "uri": "spotify:artist:2YZyLoL8N0Wb9xBt1NhZWg"
    },
    {
      "external_urls": {
        "spotify": "https://open.spotify.com/artist/6kbzJ40luXJ5IKnSpWr7SD"
      },
      "followers": {
        "href": null,
        "total": 75886
      },
      "genres": [
        "blues rock",
        "deep new americana",
        "funk",
        "modern blues",
        "modern blues rock",
        "modern funk",
        "new americana",
        "punk blues",
        "roots rock",
        "soul",
        "stomp and holler"
      ],
      "href": "https://api.spotify.com/v1/artists/6kbzJ40luXJ5IKnSpWr7SD",
      "id": "6kbzJ40luXJ5IKnSpWr7SD",
      "images": [
        {
          "height": 640,
          "url": "https://i.scdn.co/image/ab6761610000e5ebe33f8ac4208ad68680645aee",
          "width": 640
        },
        {
          "height": 320,
          "url": "https://i.scdn.co/image/ab67616100005174e33f8ac4208ad68680645aee",
          "width": 320
        },
        {
          "height": 160,
          "url": "https://i.scdn.co/image/ab6761610000f178e33f8ac4208ad68680645aee",
          "width": 160
        }
      ],
      "name": "Black Joe Lewis & The Honeybears",
      "popularity": 47,
      "type": "artist",
      "uri": "spotify:artist:6kbzJ40luXJ5IKnSpWr7SD"
    },
    {
      "external_urls": {
        "spotify": "https://open.spotify.com/artist/4qKpLkR911SUlnd4HAtF79"
      },
      "followers": {
        "href": null,
        "total": 161435
      },
      "genres": [
        "deep new americana",
        "indie folk",
        "new americana",
        "stomp and holler"
      ],
      "href": "https://api.spotify.com/v1/artists/4qKpLkR911SUlnd4HAtF79",
      "id": "4qKpLkR911SUlnd4HAtF79",
      "images": [
        {
          "height": 640,
          "url": "https://i.scdn.co/image/ab6761610000e5eb7e6ee546088aaf9c33ba3eb3",
          "width": 640
        },
        {
          "height": 320,
          "url": "https://i.scdn.co/image/ab676161000051747e6ee546088aaf9c33ba3eb3",
          "width": 320
        },
        {
          "height": 160,
          "url": "https://i.scdn.co/image/ab6761610000f1787e6ee546088aaf9c33ba3eb3",
          "width": 160
        }
      ],
      "name": "Nathaniel Rateliff",
      "popularity": 59,
      "type": "artist",
      "uri": "spotify:artist:4qKpLkR911SUlnd4HAtF79"
    },
    {
      "external_urls": {
        "spotify": "https://open.spotify.com/artist/3nFkdlSjzX9mRTtwJOzDYB"
      },
      "followers": {
        "href": null,
        "total": 6744623
      },
      "genres": [
        "east coast hip hop",
        "hip hop",
        "rap"
      ],
      "href": "https://api.spotify.com/v1/artists/3nFkdlSjzX9mRTtwJOzDYB",
      "id": "3nFkdlSjzX9mRTtwJOzDYB",
      "images": [
        {
          "height": 640,
          "url": "https://i.scdn.co/image/ab6761610000e5ebc75afcd5a9027f60eaebb5e4",
          "width": 640
        },
        {
          "height": 320,
          "url": "https://i.scdn.co/image/ab67616100005174c75afcd5a9027f60eaebb5e4",
          "width": 320
        },
        {
          "height": 160,
          "url": "https://i.scdn.co/image/ab6761610000f178c75afcd5a9027f60eaebb5e4",
          "width": 160
        }
      ],
      "name": "JAY-Z",
      "popularity": 85,
      "type": "artist",
      "uri": "spotify:artist:3nFkdlSjzX9mRTtwJOzDYB"
    }
  ],
  "total": 50,
  "limit": 15,
  "offset": 0,
  "href": "https://api.spotify.com/v1/me/top/artists?limit=15&offset=0",
  "previous": null,
  "next": "https://api.spotify.com/v1/me/top/artists?limit=15&offset=15"
}